{
	"id": "M30-01-HENKOU",
	"name": "省令様式 別記30-01 在留資格変更許可申請書",
	"orient": "P",
	"page": 10,
	"items": [
		{"id":"a_01_01","type":"cell","name":"国籍・地域","page":"1","x":"45","y":"67.1","w":"48.1","h":"6.3","fontSize":"7"},
		{"id":"a_01_02_01","type":"text","name":"生年月日：年","page":"1","x":"126.9","y":"68.1","fontSize":"9"},
		{"id":"a_01_02_02","type":"text","name":"生年月日：月","page":"1","x":"152.5","y":"68.1","fontSize":"9"},
		{"id":"a_01_02_03","type":"text","name":"生年月日：日","page":"1","x":"172.1","y":"68.1","fontSize":"9"},
		{"id":"a_01_03_01","type":"text","name":"氏名：苗字","page":"1","x":"45","y":"80","fontSize":"9"},
		{"id":"a_01_03_02","type":"text","name":"氏名：名前","page":"1","x":"116.9","y":"80","fontSize":"9"},
		{"id":"a_01_04_male","type":"circle","name":"性別：男","page":"1","x":"38.1","y":"89","circleRadius":"2"},
		{"id":"a_01_04_female","type":"circle","name":"性別：女","page":"1","x":"47.6","y":"89","circleRadius":"2"},
		{"id":"a_01_05","type":"cell","name":"出生地","page":"1","x":"83.5","y":"88","w":"52.3","h":"6.3","fontSize":"7"},
		{"id":"a_01_06_yes","type":"circle","name":"配偶者：有","page":"1","x":"174.1","y":"89","circleRadius":"1.8"},
		{"id":"a_01_06_no","type":"circle","name":"配偶者：無","page":"1","x":"184","y":"89","circleRadius":"1.8"},
		{"id":"a_01_07","type":"text","name":"職業","page":"1","x":"36.2","y":"97.1","fontSize":"9"},
		{"id":"a_01_08","type":"text","name":"居住地","page":"1","x":"112","y":"96.7","fontSize":"9"},
		{"id":"a_01_09_01","type":"text","name":"住所","page":"1","x":"45","y":"105.5","fontSize":"9"},
		{"id":"a_01_09_02","type":"text","name":"連絡先：電話番号","page":"1","x":"45","y":"113.9","fontSize":"9"},
		{"id":"a_01_09_03","type":"text","name":"連絡先：携帯電話番号","page":"1","x":"132","y":"113.9","fontSize":"9"},
		{"id":"a_01_10_01","type":"text","name":"番号","page":"1","x":"55","y":"122.5","fontSize":"9"},
		{"id":"a_01_10_02","type":"text","name":"有効期限：年","page":"1","x":"132.5","y":"122.5","fontSize":"9"},
		{"id":"a_01_10_03","type":"text","name":"有効期限：月","page":"1","x":"157","y":"122.5","fontSize":"9"},
		{"id":"a_01_10_04","type":"text","name":"有効期限：日","page":"1","x":"177","y":"122.5","fontSize":"9"},
		{"id":"a_01_11_01","type":"cell","name":"資格","page":"1","x":"55","y":"130","w":"52.4","h":"6.3","fontSize":"7"},
		{"id":"a_01_11_02","type":"text","name":"在留期間","page":"1","x":"136.5","y":"131","fontSize":"9"},
		{"id":"a_01_11_03","type":"text","name":"満了日：年","page":"1","x":"60.4","y":"138","fontSize":"9"},
		{"id":"a_01_11_04","type":"text","name":"満了日：月","page":"1","x":"86","y":"138","fontSize":"9"},
		{"id":"a_01_11_05","type":"text","name":"満了日：日","page":"1","x":"105","y":"138","fontSize":"9"},
		{"id":"a_01_12","type":"text","name":"番号","page":"1","x":"55","y":"148.1","fontSize":"9"},
		{"id":"a_01_13_01","type":"text","name":"在留資格","page":"1","x":"55","y":"157","fontSize":"9"},
		{"id":"a_01_13_02","type":"text","name":"在中期間","page":"1","x":"55","y":"165.8","fontSize":"9"},
		{"id":"a_01_14","type":"cell","name":"理由","page":"1","x":"69.5","y":"174.1","w":"118.9","h":"6.3","fontSize":"7"},
		{"id":"a_01_15_yes","type":"circle","name":"有無：有","page":"1","x":"28.5","y":"187.1","circleRadius":"2"},
		{"id":"a_01_15_no","type":"circle","name":"有無：無","page":"1","x":"181.5","y":"187.1","circleRadius":"2"},
		{"id":"a_01_15_detail","type":"cell","name":"有無：内容","page":"1","x":"55","y":"186.5","w":"114.1","h":"6.3","fontSize":"7"},
		{"id":"a_01_16_yes","type":"circle","name":"有無：有","page":"1","x":"28.5","y":"204.7","circleRadius":"2"},
		{"id":"a_01_16_no","type":"circle","name":"有無：無","page":"1","x":"149","y":"204.7","circleRadius":"2"},
		{"id":"a_01_16_01_01","type":"cell","name":"16-1：続柄","page":"1","x":"16.5","y":"224.2","w":"13.8","h":"7.2","fontSize":"7"},
		{"id":"a_01_16_01_02","type":"cell","name":"16-1：氏名","page":"1","x":"31.5","y":"224.7","w":"41.8","h":"6.3","fontSize":"7"},
		{"id":"a_01_16_01_03","type":"text","name":"16-1：生年月日","page":"1","x":"73.5","y":"226","fontSize":"6.5"},
		{"id":"a_01_16_01_04","type":"cell","name":"16-1：国籍・地域","page":"1","x":"93.3","y":"224.2","w":"13.5","h":"7.2","fontSize":"5.3"},
		{"id":"a_01_16_01_05_yes","type":"circle","name":"16-1：同居予定：有","page":"1","x":"114.7","y":"226.1","circleRadius":"2"},
		{"id":"a_01_16_01_05_no","type":"circle","name":"16-1：同居予定：無","page":"1","x":"119.6","y":"226.1","circleRadius":"2"},
		{"id":"a_01_16_01_06","type":"cell","name":"16-1：勤務先名称・通学先名称","page":"1","x":"127","y":"224.7","w":"32","h":"6.3","fontSize":"7"},
		{"id":"a_01_16_01_07","type":"text","name":"16-1：在留カード番号","page":"1","x":"160.5","y":"226","fontSize":"9"},
		{"id":"a_01_16_02_01","type":"cell","name":"16-2：続柄","page":"1","x":"16.5","y":"231.8","w":"13.8","h":"7.2","fontSize":"7"},
		{"id":"a_01_16_02_02","type":"cell","name":"16-2：氏名","page":"1","x":"31.5","y":"232.3","w":"41.8","h":"6.3","fontSize":"7"},
		{"id":"a_01_16_02_03","type":"text","name":"16-2：生年月日","page":"1","x":"73.5","y":"233.6","fontSize":"6.5"},
		{"id":"a_01_16_02_04","type":"cell","name":"16-2：国籍・地域","page":"1","x":"93.3","y":"231.6","w":"13.5","h":"7.2","fontSize":"5.3"},
		{"id":"a_01_16_02_05_yes","type":"circle","name":"16-2：同居予定：有","page":"1","x":"114.7","y":"233.6","circleRadius":"2"},
		{"id":"a_01_16_02_05_no","type":"circle","name":"16-2：同居予定：無","page":"1","x":"119.6","y":"233.6","circleRadius":"2"},
		{"id":"a_01_16_02_06","type":"cell","name":"16-2：勤務先名称・通学先名称","page":"1","x":"127","y":"232.3","w":"32","h":"6.3","fontSize":"7"},
		{"id":"a_01_16_02_07","type":"text","name":"16-2：在留カード番号","page":"1","x":"160.5","y":"233.6","fontSize":"9"},
		{"id":"a_01_16_03_01","type":"cell","name":"16-3：続柄","page":"1","x":"16.5","y":"239.4","w":"13.8","h":"7.2","fontSize":"7"},
		{"id":"a_01_16_03_02","type":"cell","name":"16-3：氏名","page":"1","x":"31.5","y":"239.9","w":"41.8","h":"6.3","fontSize":"7"},
		{"id":"a_01_16_03_03","type":"text","name":"16-3：生年月日","page":"1","x":"73.5","y":"241.2","fontSize":"6.5"},
		{"id":"a_01_16_03_04","type":"cell","name":"16-3：国籍・地域","page":"1","x":"93.3","y":"239.2","w":"13.5","h":"7.2","fontSize":"5.3"},
		{"id":"a_01_16_03_05_yes","type":"circle","name":"16-3：同居予定：有","page":"1","x":"114.7","y":"241.2","circleRadius":"2"},
		{"id":"a_01_16_03_05_no","type":"circle","name":"16-3：同居予定：無","page":"1","x":"119.6","y":"241.2","circleRadius":"2"},
		{"id":"a_01_16_03_06","type":"cell","name":"16-3：勤務先名称・通学先名称","page":"1","x":"127","y":"239.9","w":"32","h":"6.3","fontSize":"7"},
		{"id":"a_01_16_03_07","type":"text","name":"16-3：在留カード番号","page":"1","x":"160.5","y":"241.2","fontSize":"9"},
		{"id":"a_01_16_04_01","type":"cell","name":"16-4：続柄","page":"1","x":"16.5","y":"247","w":"13.8","h":"7.2","fontSize":"7"},
		{"id":"a_01_16_04_02","type":"cell","name":"16-4：氏名","page":"1","x":"31.5","y":"247.5","w":"41.8","h":"6.3","fontSize":"7"},
		{"id":"a_01_16_04_03","type":"text","name":"16-4：生年月日","page":"1","x":"73.5","y":"248.8","fontSize":"6.5"},
		{"id":"a_01_16_04_04","type":"cell","name":"16-4：国籍・地域","page":"1","x":"93.3","y":"246.8","w":"13.5","h":"7.2","fontSize":"5.3"},
		{"id":"a_01_16_04_05_yes","type":"circle","name":"16-4：同居予定：有","page":"1","x":"114.7","y":"248.8","circleRadius":"2"},
		{"id":"a_01_16_04_05_no","type":"circle","name":"16-4：同居予定：無","page":"1","x":"119.6","y":"248.8","circleRadius":"2"},
		{"id":"a_01_16_04_07","type":"cell","name":"16-4：勤務先名称・通学先名称","page":"1","x":"127","y":"247.5","w":"32","h":"6.3","fontSize":"7"},
		{"id":"a_01_16_04_08","type":"text","name":"16-4：在留カード番号","page":"1","x":"160.5","y":"248.8","fontSize":"9"},
		{"id":"a_01_16_05_01","type":"cell","name":"16-5：続柄","page":"1","x":"16.5","y":"254.6","w":"13.8","h":"7.2","fontSize":"7"},
		{"id":"a_01_16_05_02","type":"cell","name":"16-5：氏名","page":"1","x":"31.5","y":"255.1","w":"41.8","h":"6.3","fontSize":"7"},
		{"id":"a_01_16_05_05","type":"text","name":"16-5：生年月日","page":"1","x":"73.5","y":"256.4","fontSize":"6.5"},
		{"id":"a_01_16_05_04","type":"cell","name":"16-5：国籍・地域","page":"1","x":"93.3","y":"254.4","w":"13.5","h":"7.2","fontSize":"5.3"},
		{"id":"a_01_16_05_05_yes","type":"circle","name":"16-5：同居予定：有","page":"1","x":"114.7","y":"256.4","circleRadius":"2"},
		{"id":"a_01_16_05_05_no","type":"circle","name":"16-5：同居予定：無","page":"1","x":"119.6","y":"256.4","circleRadius":"2"},
		{"id":"a_01_16_05_06","type":"cell","name":"16-5：勤務先名称・通学先名称","page":"1","x":"127","y":"255.1","w":"32","h":"6.3","fontSize":"7"},
		{"id":"a_01_16_05_07","type":"text","name":"16-5：在留カード番号","page":"1","x":"160.5","y":"256.4","fontSize":"9"},
		{"id":"a_01_16_06_01","type":"cell","name":"16-6：続柄","page":"1","x":"16.5","y":"262.2","w":"13.8","h":"7.2","fontSize":"7"},
		{"id":"a_01_16_06_02","type":"cell","name":"16-6：氏名","page":"1","x":"31.5","y":"262.7","w":"41.8","h":"6.3","fontSize":"7"},
		{"id":"a_01_16_06_03","type":"text","name":"16-6：生年月日","page":"1","x":"73.5","y":"264","fontSize":"6.5"},
		{"id":"a_01_16_06_06","type":"cell","name":"16-6：国籍・地域","page":"1","x":"93.3","y":"262","w":"13.5","h":"7.2","fontSize":"5.3"},
		{"id":"a_01_16_06_05_yes","type":"circle","name":"16-6：同居予定：有","page":"1","x":"114.7","y":"264","circleRadius":"2"},
		{"id":"a_01_16_06_05_no","type":"circle","name":"16-6：同居予定：無","page":"1","x":"119.6","y":"264","circleRadius":"2"},
		{"id":"a_01_16_06_07","type":"cell","name":"16-6：勤務先名称・通学先名称","page":"1","x":"127","y":"262.7","w":"32","h":"6.3","fontSize":"7"},
		{"id":"a_01_16_06_08","type":"text","name":"16-6：在留カード番号","page":"1","x":"160.5","y":"264","fontSize":"9"},
		{"id":"a_02_17_01","type":"text","name":"氏名又は名称","page":"3","x":"69.6","y":"23.8","fontSize":"9"},
		{"id":"a_02_17_02","type":"cell","name":"住所","page":"3","x":"53.5","y":"32.8","w":"61.7","h":"6.3","fontSize":"7"},
		{"id":"a_02_17_03","type":"text","name":"電話番号","page":"3","x":"146","y":"33.1","fontSize":"9"},
		{"id":"a_02_18_01","type":"check","name":"分野別運用方針","page":"3","x":"25.1","y":"47.8"},
		{"id":"a_02_18_02","type":"check","name":"試験","page":"3","x":"35.5","y":"53"},
		{"id":"a_02_18_03","type":"cell","name":"合格した試験名","page":"3","x":"74.2","y":"61","w":"50.9","h":"6.3","fontSize":"7"},
		{"id":"a_02_18_04","type":"cell","name":"合格した試験名","page":"3","x":"130.4","y":"61","w":"55.8","h":"6.3","fontSize":"7"},
		{"id":"a_02_18_05","type":"cell","name":"合格した試験名","page":"3","x":"74.2","y":"70.2","w":"50.9","h":"6.3","fontSize":"7"},
		{"id":"a_02_18_06","type":"check","name":"その他","page":"3","x":"35.5","y":"80.3"},
		{"id":"a_02_18_07","type":"text","name":"その他：内容","page":"3","x":"89.8","y":"80.3","fontSize":"9"},
		{"id":"a_02_18_08","type":"check","name":"技能実習2号を良好に修了","page":"3","x":"25.1","y":"93"},
		{"id":"a_02_19_01","type":"check","name":"分野別運用方針","page":"3","x":"25.1","y":"110"},
		{"id":"a_02_19_02","type":"check","name":"試験","page":"3","x":"35.5","y":"115"},
		{"id":"a_02_19_03","type":"cell","name":"合格した試験名","page":"3","x":"74.2","y":"123.1","w":"50.9","h":"6.3","fontSize":"7"},
		{"id":"a_02_19_04","type":"cell","name":"合格した試験名","page":"3","x":"130.4","y":"123.1","w":"55.8","h":"6.3","fontSize":"7"},
		{"id":"a_02_19_05","type":"cell","name":"合格した試験名","page":"3","x":"74.2","y":"132.5","w":"50.9","h":"6.3","fontSize":"7"},
		{"id":"a_02_19_06","type":"check","name":"その他","page":"3","x":"35.5","y":"142.2"},
		{"id":"a_02_19_07","type":"text","name":"その他：内容","page":"3","x":"89.8","y":"141.9","fontSize":"9"},
		{"id":"a_02_19_08","type":"check","name":"技能実習2号を良好に修了","page":"3","x":"25.1","y":"151.9"},
		{"id":"a_02_20_01_01","type":"cell","name":"20-1：職種","page":"3","x":"42.3","y":"181","w":"45.9","h":"6.3","fontSize":"7"},
		{"id":"a_02_20_01_02","type":"cell","name":"20-1：作業","page":"3","x":"115.3","y":"181","w":"66.1","h":"6.3","fontSize":"7"},
		{"id":"a_02_20_01_03","type":"check","name":"20-1：実技試験による証明","page":"3","x":"35.5","y":"195.9"},
		{"id":"a_02_20_01_04","type":"check","name":"20-1：書面による証明","page":"3","x":"35.5","y":"204.5"},
		{"id":"a_02_20_02_01","type":"cell","name":"20-2：職種","page":"3","x":"42.3","y":"230","w":"45.9","h":"6.3","fontSize":"7"},
		{"id":"a_02_20_02_02","type":"cell","name":"20-2：作業","page":"3","x":"115.3","y":"230","w":"66.1","h":"6.3","fontSize":"7"},
		{"id":"a_02_20_02_03","type":"check","name":"20-2：実技試験による証明","page":"3","x":"35.5","y":"245.1"},
		{"id":"a_02_20_02_04","type":"check","name":"20-2：書面による証明","page":"3","x":"35.5","y":"253.5"},
		{"id":"a_02_21_01","type":"text","name":"年月：年","page":"3","x":"30.1","y":"278.9"},
		{"id":"a_02_21_02","type":"text","name":"年月：月","page":"3","x":"53.1","y":"278.9"},
		{"id":"a_02_22_yes","type":"circle","name":"22：有無：有","page":"4","x":"25.9","y":"27","circleRadius":"2"},
		{"id":"a_02_22_no","type":"circle","name":"22：有無：無","page":"4","x":"183","y":"27","circleRadius":"2"},
		{"id":"a_02_22_01","type":"text","name":"22：有：徴収又は管理機関名","page":"4","x":"62.5","y":"25.1","fontSize":"9"},
		{"id":"a_02_22_02","type":"text","name":"22：有：徴収金額又は管理財産","page":"4","x":"139.9","y":"25.1","fontSize":"9"},
		{"id":"a_02_23_yes","type":"circle","name":"23：有無：有","page":"4","x":"25.9","y":"56.9","circleRadius":"2"},
		{"id":"a_02_23_no","type":"circle","name":"23：有無：無","page":"4","x":"183","y":"56.9","circleRadius":"2"},
		{"id":"a_02_23_01","type":"text","name":"23：有：外国の機関名","page":"4","x":"52.3","y":"55","fontSize":"9"},
		{"id":"a_02_23_02","type":"text","name":"23：有：支払額及び内訳","page":"4","x":"129.5","y":"55","fontSize":"9"},
		{"id":"a_02_24_yes","type":"circle","name":"24：有無：有","page":"4","x":"176.3","y":"69.3","circleRadius":"2"},
		{"id":"a_02_24_no","type":"circle","name":"24：有無：無","page":"4","x":"182","y":"69.3","circleRadius":"2"},
		{"id":"a_02_25_yes","type":"circle","name":"25：有無：有","page":"4","x":"176.3","y":"86.5","circleRadius":"2"},
		{"id":"a_02_25_no","type":"circle","name":"25：有無：無","page":"4","x":"182","y":"86.5","circleRadius":"2"},
		{"id":"a_02_26_yes","type":"circle","name":"26：有無：有","page":"4","x":"176.3","y":"103.2","circleRadius":"2"},
		{"id":"a_02_26_no","type":"circle","name":"26：有無：無","page":"4","x":"182","y":"103.2","circleRadius":"2"},
		{"id":"a_02_27_yes","type":"circle","name":"27：有無：有","page":"4","x":"176.3","y":"124.3","circleRadius":"2"},
		{"id":"a_02_27_no","type":"circle","name":"27：有無：無","page":"4","x":"182","y":"124.3","circleRadius":"2"},
		{"id":"a_02_28_01_01","type":"text","name":"28-1：入社年","page":"4","x":"17.8","y":"158.2","fontSize":"9"},
		{"id":"a_02_28_01_02","type":"text","name":"28-1：入社月","page":"4","x":"29.9","y":"158.2","fontSize":"9"},
		{"id":"a_02_28_01_03","type":"text","name":"28-1：退社年","page":"4","x":"38.4","y":"158.2","fontSize":"9"},
		{"id":"a_02_28_01_04","type":"text","name":"28-1：退社月","page":"4","x":"50.3","y":"158.2","fontSize":"9"},
		{"id":"a_02_28_01_05","type":"cell","name":"28-1：勤務先名称","page":"4","x":"59","y":"156.5","w":"45.5","h":"7.6","fontSize":"7.5"},
		{"id":"a_02_28_01_06","type":"text","name":"28-1：入社年","page":"4","x":"105","y":"158.2","fontSize":"9"},
		{"id":"a_02_28_01_07","type":"text","name":"28-1：入社月","page":"4","x":"116.6","y":"158.2","fontSize":"9"},
		{"id":"a_02_28_01_08","type":"text","name":"28-1：退社年","page":"4","x":"125.7","y":"158.2","fontSize":"9"},
		{"id":"a_02_28_01_09","type":"text","name":"28-1：退社月","page":"4","x":"138","y":"158.2","fontSize":"9"},
		{"id":"a_02_28_01_10","type":"cell","name":"28-1：勤務先名称","page":"4","x":"146.2","y":"156.5","w":"45.5","h":"7.6","fontSize":"7"},
		{"id":"a_02_28_02_01","type":"text","name":"28-2：入社年","page":"4","x":"17.8","y":"166.5","fontSize":"9"},
		{"id":"a_02_28_02_02","type":"text","name":"28-2：入社月","page":"4","x":"29.9","y":"166.5","fontSize":"9"},
		{"id":"a_02_28_02_03","type":"text","name":"28-2：退社年","page":"4","x":"38.4","y":"166.5","fontSize":"9"},
		{"id":"a_02_28_02_04","type":"text","name":"28-2：退社月","page":"4","x":"50.3","y":"166.5","fontSize":"9"},
		{"id":"a_02_28_02_05","type":"cell","name":"28-2：勤務先名称","page":"4","x":"59","y":"165","w":"45.5","h":"7.6","fontSize":"7"},
		{"id":"a_02_28_02_06","type":"text","name":"28-2：入社年","page":"4","x":"105","y":"166.5","fontSize":"9"},
		{"id":"a_02_28_02_07","type":"text","name":"28-2：入社月","page":"4","x":"116.6","y":"166.5","fontSize":"9"},
		{"id":"a_02_28_02_08","type":"text","name":"28-2：退社年","page":"4","x":"125.7","y":"166.5","fontSize":"9"},
		{"id":"a_02_28_02_09","type":"text","name":"28-2：退社月","page":"4","x":"138","y":"166.5","fontSize":"9"},
		{"id":"a_02_28_02_10","type":"cell","name":"28-2：勤務先名称","page":"4","x":"146.2","y":"165","w":"45.5","h":"7.6","fontSize":"7"},
		{"id":"a_02_28_03_01","type":"text","name":"28-3：入社年","page":"4","x":"17.8","y":"174.8","fontSize":"9"},
		{"id":"a_02_28_03_02","type":"text","name":"28-3：入社月","page":"4","x":"29.9","y":"174.8","fontSize":"9"},
		{"id":"a_02_28_03_03","type":"text","name":"28-3：退社年","page":"4","x":"38.4","y":"174.8","fontSize":"9"},
		{"id":"a_02_28_03_04","type":"text","name":"28-3：退社月","page":"4","x":"50.3","y":"174.8","fontSize":"9"},
		{"id":"a_02_28_03_05","type":"cell","name":"28-3：勤務先名称","page":"4","x":"59","y":"173.3","w":"45.5","h":"7.6","fontSize":"7"},
		{"id":"a_02_28_03_06","type":"text","name":"28-3：入社年","page":"4","x":"105","y":"174.8","fontSize":"9"},
		{"id":"a_02_28_03_07","type":"text","name":"28-3：入社月","page":"4","x":"116.6","y":"174.8","fontSize":"9"},
		{"id":"a_02_28_03_08","type":"text","name":"28-3：退社年","page":"4","x":"125.7","y":"174.8","fontSize":"9"},
		{"id":"a_02_28_03_09","type":"text","name":"28-3：退社月","page":"4","x":"138","y":"174.8","fontSize":"9"},
		{"id":"a_02_28_03_10","type":"cell","name":"28-3：勤務先名称","page":"4","x":"146.2","y":"173.3","w":"45.5","h":"7.6","fontSize":"7"},
		{"id":"a_02_29_01","type":"text","name":"氏名","page":"4","x":"38.7","y":"189.1"},
		{"id":"a_02_29_02","type":"text","name":"本人との関係","page":"4","x":"146.5","y":"189.1"},
		{"id":"a_02_29_03","type":"text","name":"住所","page":"4","x":"38.7","y":"198.7"},
		{"id":"a_02_29_04","type":"text","name":"電話番号","page":"4","x":"49","y":"207.5"},
		{"id":"a_02_29_05","type":"text","name":"携帯電話番号","page":"4","x":"136.1","y":"207.5"},
		{"id":"a_02_29_10","type":"text","name":"取次者：氏名","page":"4","x":"38.3","y":"262"},
		{"id":"a_02_29_11","type":"text","name":"取次者：住所","page":"4","x":"105","y":"262"},
		{"id":"a_02_29_12","type":"text","name":"取次者：所属機関等","page":"4","x":"28.2","y":"279.8"},
		{"id":"a_02_29_13","type":"text","name":"取次者：電話番号","page":"4","x":"131.5","y":"278.4","fontSize":"8"},
		{"id":"a_02_29_14","type":"text","name":"取次者：携帯電話番号","page":"4","x":"131.5","y":"281.6","fontSize":"8"},
		{"id":"o_01","type":"text","name":"氏名","page":"5","x":"71.2","y":"20"},
		{"id":"o_02_01_01","type":"text","name":"年月日：年（から）","page":"5","x":"58.5","y":"32.9"},
		{"id":"o_02_01_02","type":"text","name":"年月日：月（から）","page":"5","x":"79.1","y":"32.9"},
		{"id":"o_02_01_03","type":"text","name":"年月日：日（から）","page":"5","x":"98.1","y":"32.9"},
		{"id":"o_02_01_04","type":"text","name":"年月日：年（まで）","page":"5","x":"123.5","y":"32.9"},
		{"id":"o_02_01_05","type":"text","name":"年月日：月（まで）","page":"5","x":"143.5","y":"32.9"},
		{"id":"o_02_01_06","type":"text","name":"年月日：日（まで）","page":"5","x":"162.9","y":"32.9"},
		{"id":"o_02_02_01","type":"cell","name":"特定産業分野","page":"5","x":"43","y":"47.9","w":"54.9","h":"6.3","fontSize":"7"},
		{"id":"o_02_02_02","type":"cell","name":"特定産業分野","page":"5","x":"43","y":"56.2","w":"54.9","h":"6.3","fontSize":"7"},
		{"id":"o_02_02_03","type":"cell","name":"特定産業分野","page":"5","x":"43","y":"64.9","w":"54.9","h":"6.3","fontSize":"7"},
		{"id":"o_02_02_04","type":"cell","name":"業務区分","page":"5","x":"121","y":"47.9","w":"68","h":"6.3","fontSize":"7"},
		{"id":"o_02_02_05","type":"cell","name":"業務区分","page":"5","x":"121","y":"56.2","w":"68","h":"6.3","fontSize":"7"},
		{"id":"o_02_02_06","type":"cell","name":"業務区分","page":"5","x":"121","y":"64.9","w":"68","h":"6.3","fontSize":"7"},
		{"id":"o_02_02_07","type":"text","name":"業種：1つのみ","page":"5","x":"149.6","y":"74"},
		{"id":"o_02_02_08","type":"text","name":"業種：複数選択可","page":"5","x":"166.7","y":"82.5"},
		{"id":"o_02_03","type":"text","name":"時間","page":"5","x":"73.5","y":"90.5"},
		{"id":"o_02_03_yes","type":"circle","name":"有無：有","page":"5","x":"175.6","y":"99.5","circleRadius":"2"},
		{"id":"o_02_03_no","type":"circle","name":"有無：無","page":"5","x":"180.8","y":"99.5","circleRadius":"2"},
		{"id":"o_02_04_01","type":"text","name":"月額報酬","page":"5","x":"54.9","y":"106.5"},
		{"id":"o_02_04_02","type":"text","name":"月額報酬：日本人","page":"5","x":"165.3","y":"106.5"},
		{"id":"o_02_04_yes","type":"circle","name":"有無：有","page":"5","x":"175.6","y":"115.6","circleRadius":"2"},
		{"id":"o_02_04_no","type":"circle","name":"有無：無","page":"5","x":"180.8","y":"115.6","circleRadius":"2"},
		{"id":"o_02_05_01","type":"check","name":"通貨払","page":"5","x":"72.9","y":"122.5"},
		{"id":"o_02_05_02","type":"check","name":"口座振込み","page":"5","x":"118.3","y":"122.5"},
		{"id":"o_02_06_yes","type":"circle","name":"2-6：有無：有","page":"5","x":"22.9","y":"138.4","circleRadius":"2"},
		{"id":"o_02_06_no","type":"circle","name":"2-6：有無：無","page":"5","x":"181.5","y":"138.4","circleRadius":"2"},
		{"id":"o_02_06_detail","type":"cell","name":"2-6：有：内容","page":"5","x":"34.5","y":"136.1","w":"139.6","h":"7.1","fontSize":"7"},
		{"id":"o_02_07_yes","type":"circle","name":"2-7：有無：有","page":"5","x":"175.6","y":"145.5","circleRadius":"2"},
		{"id":"o_02_07_no","type":"circle","name":"2-7：有無：無","page":"5","x":"180.8","y":"145.5","circleRadius":"2"},
		{"id":"o_02_08_yes","type":"circle","name":"2-8：有無：有","page":"5","x":"175.6","y":"156.8","circleRadius":"2"},
		{"id":"o_02_08_no","type":"circle","name":"2-8：有無：無","page":"5","x":"180.8","y":"156.8","circleRadius":"2"},
		{"id":"o_02_09_yes","type":"circle","name":"2-9：有無：有","page":"5","x":"175.6","y":"168.5","circleRadius":"2"},
		{"id":"o_02_09_no","type":"circle","name":"2-9：有無：無","page":"5","x":"180.8","y":"168.5","circleRadius":"2"},
		{"id":"o_02_10_yes","type":"circle","name":"2-10：有無：有","page":"5","x":"175.6","y":"179.5","circleRadius":"2"},
		{"id":"o_02_10_no","type":"circle","name":"2-10：有無：無","page":"5","x":"180.8","y":"179.5","circleRadius":"2"},
		{"id":"o_02_11_yes","type":"circle","name":"2-11：有無：有","page":"5","x":"175.6","y":"190.9","circleRadius":"2"},
		{"id":"o_02_11_no","type":"circle","name":"2-11：有無：無","page":"5","x":"180.8","y":"190.9","circleRadius":"2"},
		{"id":"o_02_12_01","type":"cell","name":"氏名又は名称","page":"5","x":"43.1","y":"209.1","w":"59.3","h":"6.3","fontSize":"7"},
		{"id":"o_02_12_02_01","type":"text","name":"法人番号：1","page":"5","x":"134.8","y":"209.5"},
		{"id":"o_02_12_02_02","type":"text","name":"法人番号：2","page":"5","x":"139.4","y":"209.5"},
		{"id":"o_02_12_02_03","type":"text","name":"法人番号：3","page":"5","x":"144","y":"209.5"},
		{"id":"o_02_12_02_04","type":"text","name":"法人番号：4","page":"5","x":"148.6","y":"209.5"},
		{"id":"o_02_12_02_05","type":"text","name":"法人番号：5","page":"5","x":"153.2","y":"209.5"},
		{"id":"o_02_12_02_06","type":"text","name":"法人番号：6","page":"5","x":"157.8","y":"209.5"},
		{"id":"o_02_12_02_07","type":"text","name":"法人番号：7","page":"5","x":"162.4","y":"209.5"},
		{"id":"o_02_12_02_08","type":"text","name":"法人番号：8","page":"5","x":"167","y":"209.5"},
		{"id":"o_02_12_02_09","type":"text","name":"法人番号：9","page":"5","x":"171.6","y":"209.5"},
		{"id":"o_02_12_02_10","type":"text","name":"法人番号：10","page":"5","x":"175.9","y":"209.5"},
		{"id":"o_02_12_02_11","type":"text","name":"法人番号：11","page":"5","x":"180.5","y":"209.5"},
		{"id":"o_02_12_02_12","type":"text","name":"法人番号：12","page":"5","x":"185.1","y":"209.5"},
		{"id":"o_02_12_02_13","type":"text","name":"法人番号：13","page":"5","x":"189.7","y":"209.5"},
		{"id":"o_02_12_03","type":"cell","name":"住所","page":"5","x":"43.1","y":"220","w":"77.4","h":"6.3","fontSize":"7"},
		{"id":"o_02_12_04","type":"text","name":"電話番号","page":"5","x":"144","y":"220"},
		{"id":"o_02_12_05","type":"text","name":"代表者の氏名","page":"5","x":"52.9","y":"228"},
		{"id":"o_02_12_06","type":"text","name":"派遣期間：年（から）","page":"5","x":"49.6","y":"236.8"},
		{"id":"o_02_12_07","type":"text","name":"派遣期間：月（から）","page":"5","x":"70","y":"236.8"},
		{"id":"o_02_12_08","type":"text","name":"派遣期間：日（から）","page":"5","x":"89.5","y":"236.8"},
		{"id":"o_02_12_09","type":"text","name":"派遣期間：年（まで）","page":"5","x":"114.5","y":"236.8"},
		{"id":"o_02_12_10","type":"text","name":"派遣期間：月（まで）","page":"5","x":"135","y":"236.8"},
		{"id":"o_02_12_11","type":"text","name":"派遣期間：日（まで）","page":"5","x":"154.3","y":"236.8"},
		{"id":"o_02_13_01","type":"cell","name":"氏名又は名称","page":"5","x":"43.1","y":"255","w":"59.3","h":"6.3","fontSize":"7"},
		{"id":"o_02_13_02_01","type":"text","name":"法人番号：1","page":"5","x":"134.8","y":"256.4"},
		{"id":"o_02_13_02_02","type":"text","name":"法人番号：2","page":"5","x":"139.4","y":"256.4"},
		{"id":"o_02_13_02_03","type":"text","name":"法人番号：3","page":"5","x":"144","y":"256.4"},
		{"id":"o_02_13_02_04","type":"text","name":"法人番号：4","page":"5","x":"148.6","y":"256.4"},
		{"id":"o_02_13_02_05","type":"text","name":"法人番号：5","page":"5","x":"153.2","y":"256.4"},
		{"id":"o_02_13_02_06","type":"text","name":"法人番号：6","page":"5","x":"157.8","y":"256.4"},
		{"id":"o_02_13_02_07","type":"text","name":"法人番号：7","page":"5","x":"162.4","y":"256.4"},
		{"id":"o_02_13_02_08","type":"text","name":"法人番号：8","page":"5","x":"167","y":"256.4"},
		{"id":"o_02_13_02_09","type":"text","name":"法人番号：9","page":"5","x":"171.6","y":"256.4"},
		{"id":"o_02_13_02_10","type":"text","name":"法人番号：10","page":"5","x":"175.9","y":"256.4"},
		{"id":"o_02_13_02_11","type":"text","name":"法人番号：11","page":"5","x":"180.5","y":"256.4"},
		{"id":"o_02_13_02_12","type":"text","name":"法人番号：12","page":"5","x":"185.1","y":"256.4"},
		{"id":"o_02_13_02_13","type":"text","name":"法人番号：13","page":"5","x":"189.7","y":"256.4"},
		{"id":"o_02_13_03","type":"cell","name":"住所","page":"5","x":"43.1","y":"266.9","w":"77.4","h":"6.3","fontSize":"7"},
		{"id":"o_02_13_04","type":"text","name":"電話番号","page":"5","x":"144","y":"267.2"},
		{"id":"o_02_13_05","type":"text","name":"許可・届出番号","page":"5","x":"43.5","y":"275.3"},
		{"id":"o_02_13_06","type":"text","name":"受理年月日：年","page":"5","x":"114.5","y":"275.1"},
		{"id":"o_02_13_07","type":"text","name":"受理年月日：月","page":"5","x":"136.5","y":"275.1"},
		{"id":"o_02_13_08","type":"text","name":"受理年月日：日","page":"5","x":"157","y":"275.1"},
		{"id":"o_02_14_01","type":"cell","name":"氏名又は名称","page":"6","x":"59.8","y":"25.7","w":"64.5","h":"6.3","fontSize":"7"},
		{"id":"o_02_14_02","type":"cell","name":"住所","page":"6","x":"46.9","y":"33.7","w":"72.9","h":"6.3","fontSize":"7"},
		{"id":"o_02_14_03","type":"text","name":"電話番号","page":"6","x":"142","y":"34.1"},
		{"id":"o_03_01","type":"cell","name":"氏名又は名称","page":"6","x":"46.9","y":"45.4","w":"55.6","h":"6.3","fontSize":"7"},
		{"id":"o_03_02_01","type":"text","name":"法人番号：1","page":"6","x":"133","y":"47"},
		{"id":"o_03_02_02","type":"text","name":"法人番号：2","page":"6","x":"137.4","y":"47"},
		{"id":"o_03_02_03","type":"text","name":"法人番号：3","page":"6","x":"141.8","y":"47"},
		{"id":"o_03_02_04","type":"text","name":"法人番号：4","page":"6","x":"145.7","y":"47"},
		{"id":"o_03_02_05","type":"text","name":"法人番号：5","page":"6","x":"150.1","y":"47"},
		{"id":"o_03_02_06","type":"text","name":"法人番号：6","page":"6","x":"154.4","y":"47"},
		{"id":"o_03_02_07","type":"text","name":"法人番号：7","page":"6","x":"158.8","y":"47"},
		{"id":"o_03_02_08","type":"text","name":"法人番号：8","page":"6","x":"163.2","y":"47"},
		{"id":"o_03_02_09","type":"text","name":"法人番号：9","page":"6","x":"167.5","y":"47"},
		{"id":"o_03_02_10","type":"text","name":"法人番号：10","page":"6","x":"171.9","y":"47"},
		{"id":"o_03_02_11","type":"text","name":"法人番号：11","page":"6","x":"176.3","y":"47"},
		{"id":"o_03_02_12","type":"text","name":"法人番号：12","page":"6","x":"180.7","y":"47"},
		{"id":"o_03_02_13","type":"text","name":"法人番号：13","page":"6","x":"185.1","y":"47"},
		{"id":"o_03_03_01","type":"text","name":"業種：1つのみ","page":"6","x":"143","y":"56.8"},
		{"id":"o_03_03_02","type":"text","name":"業種：複数選択可","page":"6","x":"159","y":"65.7","fontSize":"7"},
		{"id":"o_03_03_03","type":"cell","name":"8その他","page":"6","x":"165.3","y":"76","w":"15.3","h":"8.8","fontSize":"6"},
		{"id":"o_03_03_04","type":"cell","name":"14その他","page":"6","x":"152","y":"92.7","w":"19.8","h":"8.4","fontSize":"6"},
		{"id":"o_03_03_05","type":"cell","name":"19その他","page":"6","x":"152","y":"105.3","w":"19.8","h":"8.4","fontSize":"6"},
		{"id":"o_03_03_06","type":"cell","name":"44その他","page":"6","x":"55.5","y":"182.3","w":"13","h":"8","fontSize":"6"},
		{"id":"o_03_03_07","type":"cell","name":"47その他","page":"6","x":"170","y":"180.5","w":"14.9","h":"8.6","fontSize":"6"},
		{"id":"o_03_04_01","type":"cell","name":"住所","page":"6","x":"46.9","y":"191","w":"76.7","h":"6.3","fontSize":"7"},
		{"id":"o_03_04_02","type":"text","name":"電話番号","page":"6","x":"141.9","y":"191.1","fontSize":"9"},
		{"id":"o_03_05","type":"text","name":"資本金：円","page":"6","x":"37.5","y":"199.5","fontSize":"9"},
		{"id":"o_03_06","type":"text","name":"年間売上金額：円","page":"6","x":"123.5","y":"199.5","fontSize":"9"},
		{"id":"o_03_07","type":"text","name":"常勤職員数：名","page":"6","x":"65","y":"208","fontSize":"9"},
		{"id":"o_03_08","type":"text","name":"氏名","page":"6","x":"60","y":"215.3","fontSize":"9"},
		{"id":"o_03_09_01","type":"cell","name":"事業所名","page":"6","x":"55.4","y":"222.9","w":"47.5","h":"6.3","fontSize":"7"},
		{"id":"o_03_09_02","type":"text","name":"所在地","page":"6","x":"120.2","y":"223.5","fontSize":"9"},
		{"id":"o_03_09_yes_01","type":"circle","name":"有無：有","page":"6","x":"126.1","y":"235","circleRadius":"2"},
		{"id":"o_03_09_no_01","type":"circle","name":"有無：無","page":"6","x":"131.1","y":"235","circleRadius":"2"},
		{"id":"o_03_09_yes_02","type":"circle","name":"有無：有","page":"6","x":"126.1","y":"242","circleRadius":"2"},
		{"id":"o_03_09_no_02","type":"circle","name":"有無：無","page":"6","x":"131.1","y":"242","circleRadius":"2"},
		{"id":"o_03_09_03_01","type":"text","name":"労働保険番号：1","page":"6","x":"55.5","y":"248.9"},
		{"id":"o_03_09_03_02","type":"text","name":"労働保険番号：2","page":"6","x":"59.3","y":"248.9"},
		{"id":"o_03_09_03_03","type":"text","name":"労働保険番号：3","page":"6","x":"63.7","y":"248.9"},
		{"id":"o_03_09_03_04","type":"text","name":"労働保険番号：4","page":"6","x":"68.1","y":"248.9"},
		{"id":"o_03_09_03_05","type":"text","name":"労働保険番号：5","page":"6","x":"72.6","y":"248.9"},
		{"id":"o_03_09_03_06","type":"text","name":"労働保険番号：6","page":"6","x":"76.9","y":"248.9"},
		{"id":"o_03_09_03_07","type":"text","name":"労働保険番号：7","page":"6","x":"80.9","y":"248.9"},
		{"id":"o_03_09_03_08","type":"text","name":"労働保険番号：8","page":"6","x":"85.3","y":"248.9"},
		{"id":"o_03_09_03_09","type":"text","name":"労働保険番号：9","page":"6","x":"89.7","y":"248.9"},
		{"id":"o_03_09_03_10","type":"text","name":"労働保険番号：10","page":"6","x":"94.1","y":"248.9"},
		{"id":"o_03_09_03_11","type":"text","name":"労働保険番号：11","page":"6","x":"98.5","y":"248.9"},
		{"id":"o_03_09_03_12","type":"text","name":"労働保険番号：12","page":"6","x":"102.9","y":"248.9"},
		{"id":"o_03_09_03_13","type":"text","name":"労働保険番号：13","page":"6","x":"107.3","y":"248.9"},
		{"id":"o_03_09_03_14","type":"text","name":"労働保険番号：14","page":"6","x":"111.4","y":"248.9"},
		{"id":"o_03_09_03_15","type":"text","name":"労働保険番号：15","page":"6","x":"115.8","y":"248.9"},
		{"id":"o_03_09_03_16","type":"text","name":"労働保険番号：16","page":"6","x":"120","y":"248.9"},
		{"id":"o_03_09_03_17","type":"text","name":"労働保険番号：17","page":"6","x":"124.4","y":"248.9"},
		{"id":"o_03_09_03_18","type":"text","name":"労働保険番号：18","page":"6","x":"128.8","y":"248.9"},
		{"id":"o_03_10_yes","type":"circle","name":"3-10：有無：有","page":"6","x":"27.1","y":"264.7","circleRadius":"2"},
		{"id":"o_03_10_no","type":"circle","name":"3-10：有無：無","page":"6","x":"177.1","y":"264.7","circleRadius":"2"},
		{"id":"o_03_10_detail","type":"cell","name":"3-10：有：内容","page":"6","x":"39","y":"262.2","w":"131.2","h":"7","fontSize":"7"},
		{"id":"o_03_11_yes","type":"circle","name":"3-11：有無：有","page":"6","x":"27.1","y":"286.1","circleRadius":"2"},
		{"id":"o_03_11_no","type":"circle","name":"3-11：有無：無","page":"6","x":"177.1","y":"286.1","circleRadius":"2"},
		{"id":"o_03_11_detail","type":"cell","name":"3-11：有：内容","page":"6","x":"46.9","y":"284","w":"122.9","h":"7","fontSize":"7"},
		{"id":"o_03_12_yes","type":"circle","name":"3-12：有無：有","page":"7","x":"32.5","y":"28","circleRadius":"1.8"},
		{"id":"o_03_12_no","type":"circle","name":"3-12：有無：無","page":"7","x":"171.9","y":"28","circleRadius":"1.8"},
		{"id":"o_03_12_detail","type":"cell","name":"3-12：有：内容","page":"7","x":"42.5","y":"25.8","w":"123","h":"6.3","fontSize":"7"},
		{"id":"o_03_13_yes","type":"circle","name":"3-13：有無：有","page":"7","x":"32.5","y":"40","circleRadius":"1.8"},
		{"id":"o_03_13_no","type":"circle","name":"3-13：有無：無","page":"7","x":"171.9","y":"40","circleRadius":"1.8"},
		{"id":"o_03_13_detail","type":"cell","name":"3-13：有：内容","page":"7","x":"64.8","y":"37.5","w":"100.7","h":"6.3","fontSize":"7"},
		{"id":"o_03_14_yes","type":"circle","name":"3-14：有無：有","page":"7","x":"32.5","y":"55","circleRadius":"1.8"},
		{"id":"o_03_14_no","type":"circle","name":"3-14：有無：無","page":"7","x":"171.9","y":"55","circleRadius":"1.8"},
		{"id":"o_03_14_detail","type":"cell","name":"3-14：有：内容","page":"7","x":"64.8","y":"52.8","w":"100.7","h":"6.3","fontSize":"7"},
		{"id":"o_03_15_yes","type":"circle","name":"3-15：有無：有","page":"7","x":"32.5","y":"67","circleRadius":"1.8"},
		{"id":"o_03_15_no","type":"circle","name":"3-15：有無：無","page":"7","x":"171.9","y":"67","circleRadius":"1.8"},
		{"id":"o_03_15_detail","type":"cell","name":"3-15：有：内容","page":"7","x":"64.8","y":"64.6","w":"100.7","h":"6.3","fontSize":"7"},
		{"id":"o_03_16_yes","type":"circle","name":"3-16：有無：有","page":"7","x":"32.5","y":"82","circleRadius":"1.8"},
		{"id":"o_03_16_no","type":"circle","name":"3-16：有無：無","page":"7","x":"171.9","y":"82","circleRadius":"1.8"},
		{"id":"o_03_16_detail","type":"cell","name":"3-16：有：内容","page":"7","x":"64.8","y":"79.8","w":"100.7","h":"6.3","fontSize":"7"},
		{"id":"o_03_17_yes","type":"circle","name":"3-17：有無：有","page":"7","x":"32.5","y":"97.1","circleRadius":"1.8"},
		{"id":"o_03_17_no","type":"circle","name":"3-17：有無：無","page":"7","x":"171.9","y":"97.1","circleRadius":"1.8"},
		{"id":"o_03_17_detail","type":"cell","name":"3-17：有：内容","page":"7","x":"64.8","y":"95","w":"100.7","h":"6.3","fontSize":"7"},
		{"id":"o_03_18_yes","type":"circle","name":"3-18：有無：有","page":"7","x":"32.5","y":"116","circleRadius":"1.8"},
		{"id":"o_03_18_no","type":"circle","name":"3-18：有無：無","page":"7","x":"171.9","y":"116","circleRadius":"1.8"},
		{"id":"o_03_18_detail","type":"cell","name":"3-18：有：内容","page":"7","x":"64.8","y":"114.3","w":"100.7","h":"6.3","fontSize":"7"},
		{"id":"o_03_19_yes","type":"circle","name":"3-19：有無：有","page":"7","x":"32.5","y":"128","circleRadius":"1.8"},
		{"id":"o_03_19_no","type":"circle","name":"3-19：有無：無","page":"7","x":"171.9","y":"128","circleRadius":"1.8"},
		{"id":"o_03_19_detail","type":"cell","name":"3-19：有：内容","page":"7","x":"64.8","y":"125.9","w":"100.7","h":"6.3","fontSize":"7"},
		{"id":"o_03_20_yes","type":"circle","name":"3-20：有無：有","page":"7","x":"32.5","y":"149","circleRadius":"1.8"},
		{"id":"o_03_20_no","type":"circle","name":"3-20：有無：無","page":"7","x":"171.9","y":"149","circleRadius":"1.8"},
		{"id":"o_03_20_detail","type":"cell","name":"3-20：有：内容","page":"7","x":"64.8","y":"147.3","w":"100.7","h":"6.3","fontSize":"7"},
		{"id":"o_03_21_yes","type":"circle","name":"3-21：有無：有","page":"7","x":"32.5","y":"161.2","circleRadius":"1.8"},
		{"id":"o_03_21_no","type":"circle","name":"3-21：有無：無","page":"7","x":"171.9","y":"161.2","circleRadius":"1.8"},
		{"id":"o_03_21_detail","type":"cell","name":"3-21：有：内容","page":"7","x":"42.5","y":"159","w":"123","h":"6.3","fontSize":"7"},
		{"id":"o_03_22_yes","type":"circle","name":"3-22：有無：有","page":"7","x":"171.3","y":"170","circleRadius":"1.8"},
		{"id":"o_03_22_no","type":"circle","name":"3-22：有無：無","page":"7","x":"175.5","y":"170","circleRadius":"1.8"},
		{"id":"o_03_23_yes","type":"circle","name":"3-23：有無：有","page":"7","x":"32.5","y":"185","circleRadius":"1.8"},
		{"id":"o_03_23_no","type":"circle","name":"3-23：有無：無","page":"7","x":"171.9","y":"185","circleRadius":"1.8"},
		{"id":"o_03_23_detail","type":"cell","name":"3-23：有：内容","page":"7","x":"42.5","y":"183.1","w":"123","h":"6.3","fontSize":"7"},
		{"id":"o_03_24_yes","type":"circle","name":"3-24：有無：有","page":"7","x":"32.5","y":"197.1","circleRadius":"1.8"},
		{"id":"o_03_24_no","type":"circle","name":"3-24：有無：無","page":"7","x":"171.9","y":"197.1","circleRadius":"1.8"},
		{"id":"o_03_24_detail","type":"cell","name":"3-24：有：内容","page":"7","x":"42.5","y":"195.5","w":"123","h":"6.3","fontSize":"7"},
		{"id":"o_03_25_yes","type":"circle","name":"3-25：有無：有","page":"7","x":"171.1","y":"206","circleRadius":"1.8"},
		{"id":"o_03_25_no","type":"circle","name":"3-25：有無：無","page":"7","x":"175.2","y":"206","circleRadius":"1.8"},
		{"id":"o_03_26_yes","type":"circle","name":"3-26：有無：有","page":"7","x":"171.1","y":"219.1","circleRadius":"1.8"},
		{"id":"o_03_26_no","type":"circle","name":"3-26：有無：無","page":"7","x":"175.2","y":"219.1","circleRadius":"1.8"},
		{"id":"o_03_26_01","type":"check","name":"3-26：有無：有：1","page":"7","x":"32.5","y":"225"},
		{"id":"o_03_26_02","type":"check","name":"3-26：有無：有：2","page":"7","x":"32.5","y":"236.9"},
		{"id":"o_03_26_03","type":"check","name":"3-26：有無：有：3","page":"7","x":"32.5","y":"249"},
		{"id":"o_03_26_04","type":"check","name":"3-26：有無：有：4","page":"7","x":"32.5","y":"261"},
		{"id":"o_03_26_01_detail","type":"cell","name":"3-26：有無：有：1：内容","page":"7","x":"43.3","y":"229.5","w":"123","h":"6.3","fontSize":"7"},
		{"id":"o_03_26_02_detail","type":"cell","name":"3-26：有無：有：2：内容","page":"7","x":"43.3","y":"241.3","w":"123","h":"6.3","fontSize":"7"},
		{"id":"o_03_26_03_detail","type":"cell","name":"3-26：有無：有：3：内容","page":"7","x":"43.3","y":"253.5","w":"123","h":"6.3","fontSize":"7"},
		{"id":"o_03_27_yes","type":"circle","name":"3-27：有無：有","page":"7","x":"32.5","y":"279.6","circleRadius":"1.8"},
		{"id":"o_03_27_no","type":"circle","name":"3-27：有無：無","page":"7","x":"171.9","y":"279.6","circleRadius":"1.8"},
		{"id":"o_03_27_detail","type":"cell","name":"3-27：有無：有：内容","page":"7","x":"42.5","y":"277.5","w":"123","h":"6.3","fontSize":"7"},
		{"id":"o_03_28_yes","type":"circle","name":"3-28：有無：有","page":"7","x":"32.5","y":"288.6","circleRadius":"1.8"},
		{"id":"o_03_28_no","type":"circle","name":"3-28：有無：無","page":"7","x":"171.9","y":"288.6","circleRadius":"1.8"},
		{"id":"o_03_28_detail","type":"cell","name":"3-28：有無：有：内容","page":"7","x":"42.5","y":"287","w":"123","h":"6.3","fontSize":"7"},
		{"id":"o_03_29_yes","type":"circle","name":"3-29：有無：有","page":"8","x":"180.3","y":"20","circleRadius":"1.8"},
		{"id":"o_03_29_no","type":"circle","name":"3-29：有無：無","page":"8","x":"185","y":"20","circleRadius":"1.8"},
		{"id":"o_03_30_yes","type":"circle","name":"3-30：有無：有","page":"8","x":"180.3","y":"33.7","circleRadius":"1.8"},
		{"id":"o_03_30_no","type":"circle","name":"3-30：有無：無","page":"8","x":"185","y":"33.7","circleRadius":"1.8"},
		{"id":"o_03_31_yes","type":"circle","name":"3-31：有無：有","page":"8","x":"180.3","y":"47.5","circleRadius":"1.8"},
		{"id":"o_03_31_no","type":"circle","name":"3-31：有無：無","page":"8","x":"185","y":"47.5","circleRadius":"1.8"},
		{"id":"o_03_32_01","type":"text","name":"3-32：支援責任者名","page":"8","x":"43.8","y":"67.3","fontSize":"9"},
		{"id":"o_03_32_02","type":"text","name":"3-32：所属・役職","page":"8","x":"121.1","y":"67.3","fontSize":"9"},
		{"id":"o_03_32_yes","type":"circle","name":"3-32：有無：有","page":"8","x":"180.3","y":"75.7","circleRadius":"1.8"},
		{"id":"o_03_32_no","type":"circle","name":"3-32：有無：無","page":"8","x":"185","y":"75.7","circleRadius":"1.8"},
		{"id":"o_03_33_01","type":"text","name":"3-33：支援担当者名","page":"8","x":"43.8","y":"82","fontSize":"9"},
		{"id":"o_03_33_02","type":"text","name":"3-33：所属・役職","page":"8","x":"121.1","y":"82","fontSize":"9"},
		{"id":"o_03_33_yes","type":"circle","name":"3-33：有無：有","page":"8","x":"180.3","y":"90","circleRadius":"1.8"},
		{"id":"o_03_33_no","type":"circle","name":"3-33：有無：無","page":"8","x":"185","y":"90","circleRadius":"1.8"},
		{"id":"o_03_34_yes","type":"circle","name":"3-34：有無：有","page":"8","x":"180.3","y":"98","circleRadius":"1.8"},
		{"id":"o_03_34_no","type":"circle","name":"3-34：有無：無","page":"8","x":"185","y":"98","circleRadius":"1.8"},
		{"id":"o_03_34_01","type":"check","name":"3-34：有無：有：1","page":"8","x":"22.5","y":"105"},
		{"id":"o_03_34_02","type":"check","name":"3-34：有無：有：2","page":"8","x":"22.5","y":"122.1"},
		{"id":"o_03_34_03","type":"check","name":"3-34：有無：有：3","page":"8","x":"22.5","y":"139.3"},
		{"id":"o_03_34_03_detail","type":"cell","name":"3-34：有無：有：3：内容","page":"8","x":"109.5","y":"138.2","w":"66.6","h":"6.3","fontSize":"7"},
		{"id":"o_03_35_yes","type":"circle","name":"3-35：有無：有","page":"8","x":"180.3","y":"153.5","circleRadius":"1.8"},
		{"id":"o_03_35_no","type":"circle","name":"3-35：有無：無","page":"8","x":"185","y":"153.5","circleRadius":"1.8"},
		{"id":"o_03_36_yes","type":"circle","name":"3-36：有無：有","page":"8","x":"180.3","y":"167","circleRadius":"1.8"},
		{"id":"o_03_36_no","type":"circle","name":"3-36：有無：無","page":"8","x":"185","y":"167","circleRadius":"1.8"},
		{"id":"o_03_37_yes","type":"circle","name":"3-37：有無：有","page":"8","x":"180.3","y":"177.5","circleRadius":"1.8"},
		{"id":"o_03_37_no","type":"circle","name":"3-37：有無：無","page":"8","x":"185","y":"177.5","circleRadius":"1.8"},
		{"id":"o_03_38_yes","type":"circle","name":"3-38：有無：有","page":"8","x":"22.5","y":"198.1","circleRadius":"1.8"},
		{"id":"o_03_38_no","type":"circle","name":"3-38：有無：無","page":"8","x":"181","y":"198.1","circleRadius":"1.8"},
		{"id":"o_03_38_detail","type":"cell","name":"3-38：有無：有：内容","page":"8","x":"34.1","y":"196","w":"139.9","h":"6.3","fontSize":"7"},
		{"id":"o_03_39_yes","type":"circle","name":"3-39：有無：有","page":"8","x":"180.3","y":"208.5","circleRadius":"1.8"},
		{"id":"o_03_39_no","type":"circle","name":"3-39：有無：無","page":"8","x":"185","y":"208.5","circleRadius":"1.8"},
		{"id":"o_03_40_yes","type":"circle","name":"3-40：有無：有","page":"8","x":"180.3","y":"218.5","circleRadius":"1.8"},
		{"id":"o_03_40_no","type":"circle","name":"3-40：有無：無","page":"8","x":"185","y":"218.5","circleRadius":"1.8"},
		{"id":"o_04_01_yes","type":"circle","name":"4-1：有無：有","page":"8","x":"180.3","y":"246","circleRadius":"1.8"},
		{"id":"o_04_01_no","type":"circle","name":"4-1：有無：無","page":"8","x":"185","y":"246","circleRadius":"1.8"},
		{"id":"o_04_02_yes","type":"circle","name":"4-2：有無：有","page":"8","x":"180.3","y":"257","circleRadius":"1.8"},
		{"id":"o_04_02_no","type":"circle","name":"4-2：有無：無","page":"8","x":"185","y":"257","circleRadius":"1.8"},
		{"id":"o_04_03_yes","type":"circle","name":"4-3：有無：有","page":"8","x":"180.3","y":"265","circleRadius":"1.8"},
		{"id":"o_04_03_no","type":"circle","name":"4-3：有無：無","page":"8","x":"185","y":"265","circleRadius":"1.8"},
		{"id":"o_04_04_yes","type":"circle","name":"4-4：有無：有","page":"8","x":"180.3","y":"272.6","circleRadius":"1.8"},
		{"id":"o_04_04_no","type":"circle","name":"4-4：有無：無","page":"8","x":"185","y":"272.6","circleRadius":"1.8"},
		{"id":"o_04_05_yes","type":"circle","name":"4-5：有無：有","page":"8","x":"180.3","y":"283.7","circleRadius":"1.8"},
		{"id":"o_04_05_no","type":"circle","name":"4-5：有無：無","page":"8","x":"185","y":"283.7","circleRadius":"1.8"},
		{"id":"o_04_06_yes","type":"circle","name":"4-6：有無：有","page":"9","x":"180.3","y":"31.1","circleRadius":"1.8"},
		{"id":"o_04_06_no","type":"circle","name":"4-6：有無：無","page":"9","x":"185","y":"31.1","circleRadius":"1.8"},
		{"id":"o_04_07_yes","type":"circle","name":"4-7：有無：有","page":"9","x":"180.3","y":"57.8","circleRadius":"1.8"},
		{"id":"o_04_07_no","type":"circle","name":"4-7：有無：無","page":"9","x":"185","y":"57.8","circleRadius":"1.8"},
		{"id":"o_04_08_yes","type":"circle","name":"4-8：有無：有","page":"9","x":"180.3","y":"69","circleRadius":"1.8"},
		{"id":"o_04_08_no","type":"circle","name":"4-8：有無：無","page":"9","x":"185","y":"69","circleRadius":"1.8"},
		{"id":"o_04_09_yes","type":"circle","name":"4-9：有無：有","page":"9","x":"180.3","y":"81.5","circleRadius":"1.8"},
		{"id":"o_04_09_no","type":"circle","name":"4-9：有無：無","page":"9","x":"185","y":"81.5","circleRadius":"1.8"},
		{"id":"o_04_10_yes","type":"circle","name":"4-10：有無：有","page":"9","x":"180.3","y":"90.1","circleRadius":"1.8"},
		{"id":"o_04_10_no","type":"circle","name":"4-10：有無：無","page":"9","x":"185","y":"90.1","circleRadius":"1.8"},
		{"id":"o_04_11_yes","type":"circle","name":"4-11：有無：有","page":"9","x":"180.3","y":"102.7","circleRadius":"1.8"},
		{"id":"o_04_11_no","type":"circle","name":"4-11：有無：無","page":"9","x":"185","y":"102.7","circleRadius":"1.8"},
		{"id":"o_04_12_yes","type":"circle","name":"4-12：有無：有","page":"9","x":"180.3","y":"118.9","circleRadius":"1.8"},
		{"id":"o_04_12_no","type":"circle","name":"4-12：有無：無","page":"9","x":"185","y":"118.9","circleRadius":"1.8"},
		{"id":"o_04_13_yes","type":"circle","name":"4-13：有無：有","page":"9","x":"180.3","y":"131.5","circleRadius":"1.8"},
		{"id":"o_04_13_no","type":"circle","name":"4-13：有無：無","page":"9","x":"185","y":"131.5","circleRadius":"1.8"},
		{"id":"o_04_14_yes","type":"circle","name":"4-14：有無：有","page":"9","x":"180.3","y":"143.8","circleRadius":"1.8"},
		{"id":"o_04_14_no","type":"circle","name":"4-14：有無：無","page":"9","x":"185","y":"143.8","circleRadius":"1.8"},
		{"id":"o_04_15_yes","type":"circle","name":"4-15：有無：有","page":"9","x":"180.3","y":"156.1","circleRadius":"1.8"},
		{"id":"o_04_15_no","type":"circle","name":"4-15：有無：無","page":"9","x":"185","y":"156.1","circleRadius":"1.8"},
		{"id":"o_04_16_yes","type":"circle","name":"4-16：有無：有","page":"9","x":"180.3","y":"168.9","circleRadius":"1.8"},
		{"id":"o_04_16_no","type":"circle","name":"4-16：有無：無","page":"9","x":"185","y":"168.9","circleRadius":"1.8"},
		{"id":"o_04_17_yes","type":"circle","name":"4-17：有無：有","page":"9","x":"180.3","y":"176.9","circleRadius":"1.8"},
		{"id":"o_04_17_no","type":"circle","name":"4-17：有無：無","page":"9","x":"185","y":"176.9","circleRadius":"1.8"},
		{"id":"o_05_01","type":"cell","name":"氏名又は名称","page":"9","x":"43","y":"190","w":"59.4","h":"7.5","fontSize":"8"},
		{"id":"o_05_02_01","type":"text","name":"法人番号：1","page":"9","x":"135","y":"192","fontSize":"9"},
		{"id":"o_05_02_02","type":"text","name":"法人番号：2","page":"9","x":"139.7","y":"192","fontSize":"9"},
		{"id":"o_05_02_03","type":"text","name":"法人番号：3","page":"9","x":"144.1","y":"192","fontSize":"9"},
		{"id":"o_05_02_04","type":"text","name":"法人番号：4","page":"9","x":"148.6","y":"192","fontSize":"9"},
		{"id":"o_05_02_05","type":"text","name":"法人番号：5","page":"9","x":"153.3","y":"192","fontSize":"9"},
		{"id":"o_05_02_06","type":"text","name":"法人番号：6","page":"9","x":"157.8","y":"192","fontSize":"9"},
		{"id":"o_05_02_07","type":"text","name":"法人番号：7","page":"9","x":"162.5","y":"192","fontSize":"9"},
		{"id":"o_05_02_08","type":"text","name":"法人番号：8","page":"9","x":"167.2","y":"192","fontSize":"9"},
		{"id":"o_05_02_09","type":"text","name":"法人番号：9","page":"9","x":"171.9","y":"192","fontSize":"9"},
		{"id":"o_05_02_10","type":"text","name":"法人番号：10","page":"9","x":"176.3","y":"192","fontSize":"9"},
		{"id":"o_05_02_11","type":"text","name":"法人番号：11","page":"9","x":"180.9","y":"192","fontSize":"9"},
		{"id":"o_05_02_12","type":"text","name":"法人番号：12","page":"9","x":"185.6","y":"192","fontSize":"9"},
		{"id":"o_05_02_13","type":"text","name":"法人番号：13","page":"9","x":"190.1","y":"192","fontSize":"9"},
		{"id":"o_05_03_03","type":"cell","name":"住所","page":"9","x":"43.1","y":"202","w":"72.7","h":"6.3","fontSize":"7"},
		{"id":"o_05_03_04","type":"text","name":"電話番号","page":"9","x":"144","y":"202.6","fontSize":"9"},
		{"id":"o_05_04","type":"text","name":"氏名","page":"9","x":"43.7","y":"210.9","fontSize":"9"},
		{"id":"o_05_05","type":"text","name":"登録番号","page":"9","x":"34.5","y":"220.5","fontSize":"9"},
		{"id":"o_05_06_01","type":"text","name":"年月日：年","page":"9","x":"110","y":"220.5","fontSize":"9"},
		{"id":"o_05_06_02","type":"text","name":"年月日：月","page":"9","x":"132.3","y":"220.5","fontSize":"9"},
		{"id":"o_05_06_03","type":"text","name":"年月日：日","page":"9","x":"150","y":"220.5","fontSize":"9"},
		{"id":"o_05_07","type":"cell","name":"名称","page":"9","x":"61.5","y":"228.5","w":"45.5","h":"6.3","fontSize":"7"},
		{"id":"o_05_08","type":"text","name":"所在地","page":"9","x":"130.3","y":"230","fontSize":"7"},
		{"id":"o_05_09","type":"text","name":"氏名","page":"9","x":"43.7","y":"238.1","fontSize":"9"},
		{"id":"o_05_10","type":"text","name":"氏名","page":"9","x":"125.6","y":"238.1","fontSize":"9"},
		{"id":"o_05_11","type":"text","name":"言語","page":"9","x":"43.7","y":"247.2","fontSize":"9"}
	]
}
